Cavaliers,117,Knicks,88
Trail Blazers,113,Jazz,104
Warriors,100,Spurs,129
Magic,96,Heat,108
Pacers,130,Mavericks,121
Celtics,122,Nets,117
Raptors,109,Pistons,91
Bucks,96,Hornets,107
Grizzlies,102,Timberwolves,98
Pelicans,102,Nuggets,107
76ers,97,Thunder,103
Suns,94,Kings,113
Lakers,120,Rockets,114
Hawks,114,Wizards,99
Bulls,105,Celtics,99
Kings,94,Spurs,102
Trail Blazers,106,Clippers,114
Raptors,91,Cavaliers,94
Nets,103,Pacers,94
Pistons,108,Magic,82
Thunder,113,Suns,110
Heat,91,Hornets,97
Mavericks,98,Rockets,106
Jazz,96,Lakers,89
Pelicans,114,Warriors,122
76ers,72,Hawks,104
Hornets,98,Celtics,104
Knicks,111,Grizzlies,104
Cavaliers,105,Magic,99
Bulls,118,Pacers,101
Bucks,110,Nets,108
Spurs,98,Pelicans,79
Nuggets,113,Trail Blazers,115
Kings,106,Timberwolves,103
Clippers,88,Jazz,75
Suns,100,Warriors,106
Heat,99,Spurs,106
Pistons,98,Bucks,83
Thunder,113,Lakers,96
Grizzlies,112,Wizards,103
Rockets,93,Mavericks,92
Raptors,105,Nuggets,102
Nets,88,Bulls,118
Hawks,106,Kings,95
Clippers,116,Suns,98
Cavaliers,128,Rockets,120
76ers,101,Magic,103
Pacers,115,Lakers,108
Heat,108,Kings,96
Pistons,102,Knicks,89
Pelicans,113,Bucks,117
Timberwolves,116,Grizzlies,80
Spurs,91,Jazz,106
Trail Blazers,104,Warriors,127
Wizards,103,Raptors,113
Hornets,109,76ers,93
Nets,109,Pistons,101
Knicks,99,Rockets,118
Hawks,116,Lakers,123
Grizzlies,89,Pelicans,83
Celtics,107,Bulls,100
Jazz,97,Mavericks,81
Suns,118,Trail Blazers,115
Clippers,83,Thunder,85
Magic,102,Kings,94
Bucks,125,Pacers,107
Timberwolves,99,Nuggets,102
Cavaliers,128,Celtics,122
Warriors,122,Thunder,96
Wizards,95,Hawks,92
Raptors,96,Heat,87
Nets,95,Hornets,99
Bulls,104,Knicks,117
Grizzlies,88,Clippers,99
Pelicans,111,Suns,112
Mavericks,95,Trail Blazers,105
Jazz,86,Spurs,100
Lakers,117,Warriors,97
Thunder,112,Timberwolves,92
76ers,101,Cavaliers,102
Magic,88,Wizards,86
Pistons,103,Nuggets,86
Pacers,111,Bulls,94
Hawks,112,Rockets,97
Bucks,117,Kings,91
Spurs,92,Clippers,116
Knicks,109,Jazz,114
Grizzlies,94,Trail Blazers,100
Raptors,91,Kings,96
Mavericks,86,Bucks,75
Celtics,107,Nuggets,123
Lakers,119,Suns,108
76ers,84,Jazz,109
Wizards,106,Rockets,114
Hornets,122,Pacers,100
Bulls,112,Magic,80
Thunder,97,Heat,85
Clippers,114,Pistons,82
Warriors,116,Pelicans,106
Cavaliers,106,Hawks,110
Nets,119,Timberwolves,110
Grizzlies,108,Nuggets,107
Trail Blazers,124,Suns,121
Lakers,97,Mavericks,109
Kings,102,Pelicans,94
Knicks,110,Nets,96
Wizards,118,Celtics,93
Hornets,104,Jazz,98
Magic,107,Timberwolves,123
Pacers,122,76ers,115
Hawks,115,Bulls,107
Thunder,102,Raptors,112
Suns,107,Pistons,100
Spurs,99,Rockets,101
Clippers,111,Trail Blazers,80
Warriors,116,Mavericks,95
Bucks,106,Pelicans,112
Heat,95,Bulls,98
Nuggets,101,Warriors,125
Kings,91,Lakers,101
76ers,109,Pacers,105
Wizards,94,Cavaliers,105
Hornets,111,Raptors,113
Magic,74,Jazz,87
Celtics,115,Knicks,87
Thunder,108,Clippers,110
Spurs,96,Pistons,86
Trail Blazers,122,Kings,120
Pelicans,99,Lakers,126
Pacers,99,Celtics,105
Raptors,118,Knicks,107
Hawks,117,76ers,96
Bulls,106,Wizards,95
Rockets,100,Spurs,106
Timberwolves,105,Clippers,119
Heat,91,Jazz,102
Bucks,106,Grizzlies,96
Nuggets,95,Pistons,106
Suns,104,Nets,122
Cavaliers,100,Hornets,93
Thunder,117,Magic,119
Timberwolves,125,Lakers,99
Warriors,133,Suns,120
Trail Blazers,112,Nuggets,105
Pacers,88,Magic,69
Knicks,93,Mavericks,77
Pistons,104,Thunder,88
Pelicans,106,Celtics,105
Rockets,115,76ers,88
Spurs,94,Heat,90
Jazz,96,Grizzlies,102
Clippers,127,Nets,95
Cavaliers,121,Raptors,117
Heat,90,Hawks,93
Timberwolves,108,Hornets,115
Trail Blazers,88,Bulls,113
Lakers,125,Nets,118
76ers,109,Wizards,102
Magic,89,Pelicans,82
Pacers,103,Cavaliers,93
Celtics,90,Mavericks,83
Knicks,105,Pistons,102
Hawks,107,Bucks,100
Thunder,105,Rockets,103
Raptors,121,Warriors,127
Nuggets,120,Suns,104
Clippers,107,Grizzlies,111
Kings,105,Spurs,110
Wizards,119,Knicks,112
Heat,96,Bucks,73
Rockets,126,Trail Blazers,109
Timberwolves,110,76ers,86
Jazz,77,Bulls,85
Hornets,100,Hawks,96
Pacers,96,Suns,116
Cavaliers,104,Pistons,81
Pelicans,113,Trail Blazers,101
Thunder,124,Nets,105
Celtics,88,Warriors,104
Mavericks,64,Grizzlies,80
Nuggets,111,Raptors,113
Lakers,107,Spurs,116
Kings,115,Clippers,121
Rockets,111,Jazz,102
Pelicans,121,Hornets,116
Wizards,111,Heat,114
Magic,95,Mavericks,87
Pistons,92,Celtics,94
76ers,120,Suns,105
Grizzlies,93,Timberwolves,71
Bucks,121,Warriors,124
Clippers,102,Bulls,95
Knicks,104,Hawks,94
Nets,109,Trail Blazers,129
Thunder,111,Pacers,115
Kings,102,Raptors,99
Nuggets,105,Jazz,91
Lakers,110,Bulls,118
76ers,101,Heat,94
Wizards,106,Suns,101
Hornets,90,Grizzlies,105
Pacers,83,Warriors,120
Pistons,96,Rockets,99
Bucks,93,Magic,89
Timberwolves,93,Celtics,99
Spurs,96,Mavericks,91
Clippers,123,Raptors,115
Knicks,107,Trail Blazers,103
Hawks,94,Pelicans,112
Nuggets,110,Bulls,107
Lakers,111,Thunder,109
76ers,99,Grizzlies,104
Hornets,114,Spurs,119
Magic,87,Suns,92
Cavaliers,137,Trail Blazers,125
Pacers,85,Hawks,96
Nets,92,Celtics,111
Pistons,107,Heat,84
Rockets,102,Raptors,115
Mavericks,104,Clippers,124
Jazz,108,Nuggets,83
Pelicans,117,Timberwolves,96
Warriors,149,Lakers,106
Kings,116,Thunder,101
Celtics,103,Spurs,109
Magic,91,Wizards,94
Cavaliers,128,Mavericks,90
Knicks,113,Hornets,111
76ers,89,Bulls,105
Pistons,108,Clippers,97
Jazz,95,Hawks,68
Bucks,99,Raptors,105
Grizzlies,81,Heat,90
Pacers,118,Nets,97
Nuggets,129,Thunder,132
Suns,85,Timberwolves,98
Trail Blazers,119,Pelicans,104
Lakers,85,Warriors,109
Kings,104,Rockets,117
Wizards,100,Spurs,112
Hornets,107,Knicks,102
Thunder,106,Pistons,88
Heat,107,Grizzlies,110
Warriors,115,Timberwolves,102
76ers,108,Cavaliers,112
Suns,114,Nuggets,120
Nets,105,Kings,122
Magic,96,Bucks,104
Pacers,91,Clippers,70
Mavericks,91,Pelicans,81
Trail Blazers,114,Rockets,130
Lakers,109,Hawks,94
Wizards,101,Kings,95
Raptors,122,76ers,95
Knicks,103,Thunder,112
Heat,104,Celtics,112
Grizzlies,85,Hornets,104
Timberwolves,103,Jazz,112
Warriors,105,Hawks,100
Hornets,89,Pistons,112
Nets,127,Clippers,122
Bucks,118,Cavaliers,101
Pelicans,105,Lakers,88
Spurs,83,Magic,95
Jazz,120,Rockets,101
Celtics,114,Pistons,121
Raptors,120,Grizzlies,105
Bulls,90,Lakers,96
Thunder,126,Wizards,115
Timberwolves,104,Knicks,106
Mavericks,87,Spurs,94
Nuggets,98,Heat,106
Suns,109,Hawks,107
Trail Blazers,131,Pacers,109
Hornets,97,Mavericks,87
Nets,93,Bucks,111
Grizzlies,95,Magic,94
Cavaliers,94,Clippers,113
Jazz,110,Heat,111
Warriors,127,Rockets,132
76ers,88,Magic,105
Celtics,97,Kings,92
Raptors,113,Lakers,80
Knicks,118,Timberwolves,114
Bulls,111,Cavaliers,105
Pelicans,96,Clippers,114
Hawks,85,Pistons,121
Spurs,107,Wizards,105
Nuggets,110,Rockets,128
Bucks,112,Nets,103
Hornets,120,Timberwolves,125
Raptors,128,Hawks,84
76ers,106,Celtics,107
Grizzlies,103,Lakers,100
Mavericks,107,Bulls,82
Jazz,105,Nuggets,98
Trail Blazers,99,Heat,92
Warriors,138,Suns,109
Pistons,92,Magic,98
Thunder,101,Pelicans,92
Knicks,106,Kings,98
Clippers,102,Pacers,111
76ers,98,Nuggets,106
Raptors,112,Cavaliers,116
Nets,113,Wizards,118
Hawks,99,Thunder,102
Bulls,110,Trail Blazers,112
Bucks,96,Spurs,97
Pelicans,108,Grizzlies,110
Rockets,107,Celtics,106
Mavericks,101,Hornets,109
Lakers,101,Jazz,107
Warriors,142,Pacers,106
Wizards,116,Magic,124
Heat,103,Knicks,114
Pistons,102,Bulls,91
Grizzlies,96,76ers,91
Timberwolves,91,Spurs,105
Jazz,112,Suns,105
Hornets,87,Pistons,77
Magic,87,Celtics,117
Nets,116,Nuggets,111
Hawks,103,Heat,95
Bucks,115,Trail Blazers,107
Rockets,134,Lakers,95
Knicks,94,Cavaliers,126
Mavericks,89,Kings,120
Suns,94,Pacers,109
Clippers,98,Warriors,115
Raptors,124,Timberwolves,110
Wizards,92,Nuggets,85
Grizzlies,88,Trail Blazers,86
Pelicans,88,76ers,99
Jazz,99,Warriors,106
Bulls,95,Spurs,91
Hornets,109,Magic,88
Cavaliers,114,Heat,84
Celtics,94,Raptors,101
Bucks,110,Hawks,114
Thunder,99,Rockets,102
Timberwolves,90,Pistons,117
Mavericks,111,Pacers,103
Lakers,115,Suns,119
Kings,100,Knicks,103
Wizards,110,Bucks,105
Magic,113,Nuggets,121
Pacers,118,Trail Blazers,111
Cavaliers,116,Hornets,105
Bulls,105,Heat,100
Grizzlies,110,Warriors,89
Rockets,109,Mavericks,87
Spurs,130,Nets,101
Jazz,104,Kings,84
Clippers,133,Pelicans,105
Pistons,79,76ers,97
Thunder,99,Celtics,96
Timberwolves,108,Warriors,116
Suns,119,Pelicans,120
Lakers,112,Knicks,118
Pacers,110,Hornets,94
Raptors,122,Bucks,100
Heat,112,Wizards,101
Rockets,122,Nets,118
Mavericks,112,Nuggets,92
Clippers,121,Trail Blazers,120
Kings,116,Lakers,92
Cavaliers,103,Grizzlies,86
Hawks,120,Magic,131
Bulls,94,Timberwolves,99
Pelicans,109,Warriors,113
Suns,113,Knicks,111
Trail Blazers,114,Thunder,95
76ers,114,Raptors,123
Wizards,109,Hornets,106
Magic,108,Clippers,113
Heat,95,Pacers,89
Nets,107,Lakers,97
Grizzlies,93,Cavaliers,85
Rockets,132,Kings,98
Mavericks,85,Pistons,95
Jazz,109,Thunder,89
Spurs,108,Celtics,101
Bucks,108,Bulls,97
Pelicans,102,Pacers,95
Nuggets,132,Trail Blazers,120
Suns,92,Spurs,107
Warriors,103,Knicks,90
Wizards,122,Pistons,108
Magic,118,Nets,111
Celtics,96,Hornets,88
Raptors,121,Hawks,125
Bulls,69,Bucks,95
Grizzlies,92,Kings,96
Rockets,122,Pelicans,100
76ers,89,Lakers,100
Heat,98,Clippers,102
Jazz,103,Mavericks,100
Thunder,114,Suns,101
Pistons,90,Pacers,105
Hawks,99,Hornets,107
Cavaliers,119,Lakers,108
Timberwolves,109,Rockets,111
Nuggets,127,Knicks,114
Warriors,135,Trail Blazers,90
Wizards,117,Clippers,110
Mavericks,99,Kings,79
Grizzlies,73,Jazz,82
76ers,108,Nets,107
Magic,79,Raptors,109
Heat,95,Celtics,105
Spurs,113,Pelicans,100
Pacers,107,Wizards,105
Bulls,113,Pistons,82
Thunder,108,Hawks,110
Timberwolves,115,Suns,108
Nuggets,117,Mavericks,107
76ers,93,Pelicans,108
Hornets,117,Lakers,113
Raptors,116,Nets,104
Knicks,118,Pacers,111
Heat,130,Magic,136
Bucks,108,Cavaliers,114
Grizzlies,109,Celtics,112
Rockets,100,Spurs,102
Clippers,119,Nuggets,102
Warriors,104,Jazz,74
Kings,126,Trail Blazers,121
Cavaliers,113,Bucks,102
Hawks,84,Timberwolves,92
Pistons,86,Grizzlies,98
Bulls,97,Wizards,107
Pelicans,110,Thunder,121
Jazz,93,Kings,94
Suns,111,Rockets,125
Trail Blazers,95,Mavericks,96
Pacers,102,Celtics,109
Nets,101,Warriors,117
Knicks,106,Magic,95
Heat,115,Lakers,107
Clippers,106,Spurs,101
Hornets,103,Bulls,91
Magic,109,Lakers,90
Cavaliers,119,Nets,99
Celtics,112,Thunder,117
Pistons,113,Warriors,119
Bucks,123,Wizards,96
Grizzlies,115,Rockets,109
Pelicans,91,Heat,87
Timberwolves,105,Kings,109
Nuggets,108,Hawks,109
Jazz,98,Raptors,104
Suns,123,76ers,116
Trail Blazers,90,Spurs,110
Clippers,88,Mavericks,90
Knicks,114,Celtics,119
Cavaliers,109,Warriors,108
Spurs,119,Bulls,100
Thunder,112,Timberwolves,100
Lakers,111,Clippers,102
Wizards,107,Bucks,102
Magic,112,Grizzlies,102
Nets,120,Hornets,118
Pistons,106,Cavaliers,90
Bulls,90,Pacers,85
Pelicans,111,Mavericks,104
Rockets,131,Suns,115
Timberwolves,104,Hawks,90
Trail Blazers,91,Raptors,95
Clippers,102,Nuggets,106
Kings,102,76ers,100
Celtics,113,Grizzlies,103
Heat,94,Thunder,106
Mavericks,107,Rockets,123
Lakers,100,Jazz,102
Wizards,111,Pacers,105
Magic,101,Hornets,120
Hawks,102,Knicks,98
Pistons,94,Bucks,119
Bulls,101,Nets,99
Pelicans,102,Clippers,98
Spurs,119,Suns,98
Nuggets,105,Timberwolves,103
Trail Blazers,102,Kings,89
Warriors,121,Raptors,111
Hornets,91,Heat,82
Grizzlies,114,Thunder,80
Cavaliers,124,Celtics,118
Jazz,100,76ers,83
Suns,99,Raptors,91
Lakers,89,Mavericks,101
Pacers,111,Bulls,101
Wizards,118,Nets,95
Celtics,117,Heat,114
Pelicans,104,Knicks,92
Rockets,140,Clippers,116
Timberwolves,116,Bucks,99
Hawks,105,Pistons,98
Spurs,110,Trail Blazers,94
Nuggets,122,76ers,124
Warriors,108,Mavericks,99
Kings,98,Grizzlies,112
Bulls,96,Bucks,116
Hornets,109,Cavaliers,121
Rockets,129,Knicks,122
Jazz,91,Suns,86
Thunder,114,Clippers,88
Hawks,114,Spurs,112
Heat,98,Pistons,107
Pacers,117,Magic,104
Timberwolves,89,Trail Blazers,95
Lakers,114,Raptors,123
Bucks,98,Thunder,94
Cavaliers,90,Pelicans,82
Nets,89,Jazz,101
Knicks,103,Magic,115
Bulls,118,Hornets,111
Rockets,101,Wizards,91
Clippers,109,Suns,98
Warriors,127,Nuggets,119
76ers,93,Timberwolves,91
Celtics,115,Jazz,104
Pistons,116,Pacers,121
Mavericks,113,Wizards,105
Spurs,110,Raptors,82
Nuggets,113,Kings,120
Suns,99,Heat,90
Lakers,116,Grizzlies,102
Hornets,123,Thunder,112
Magic,92,Hawks,111
Knicks,104,Bucks,105
Cavaliers,94,Bulls,106
Clippers,115,Grizzlies,106
Warriors,125,Trail Blazers,117
Kings,102,Heat,107
Pacers,121,Nets,109
Raptors,101,Jazz,93
Pistons,115,Hornets,114
Pelicans,94,Hawks,99
Rockets,118,Thunder,116
Mavericks,95,Suns,102
Nuggets,99,Spurs,127
Trail Blazers,118,Lakers,109
Wizards,112,Timberwolves,105
Magic,93,Rockets,100
Celtics,110,76ers,106
Nets,108,Cavaliers,116
Bucks,111,Knicks,116
Lakers,127,Heat,100
Warriors,119,Grizzlies,128
Kings,98,Clippers,106
Pacers,123,Knicks,109
Celtics,117,Pelicans,108
Bulls,123,Raptors,118
Thunder,121,Nuggets,106
Timberwolves,92,Jazz,94
Mavericks,82,Hawks,97
Spurs,102,Hornets,85
Nets,95,76ers,105
Bucks,101,Wizards,107
Clippers,98,Heat,86
Raptors,122,Rockets,129
Grizzlies,88,Jazz,79
Suns,116,Cavaliers,120
Trail Blazers,124,Pistons,125
Kings,106,Warriors,117
Lakers,111,Magic,95
Knicks,96,Pelicans,110
Bulls,94,Thunder,109
Timberwolves,101,Mavericks,92
Wizards,101,Bulls,99
Raptors,114,Celtics,106
Nets,97,Hawks,117
Rockets,121,Hornets,114
Spurs,107,Bucks,109
Jazz,100,Cavaliers,92
Lakers,87,Trail Blazers,108
Warriors,107,Heat,95
Kings,100,Pistons,94
76ers,98,Knicks,97
Thunder,103,Grizzlies,95
Timberwolves,119,Rockets,105
Celtics,117,Wizards,108
Clippers,105,Magic,96
Trail Blazers,102,Cavaliers,86
Nuggets,140,Pacers,112
Nets,95,Pelicans,104
Knicks,104,Bulls,89
Spurs,134,Lakers,94
Suns,108,Mavericks,113
Warriors,127,Pistons,107
76ers,102,Hornets,93
Raptors,132,Nets,113
Bucks,116,Heat,108
Rockets,105,Grizzlies,110
Timberwolves,96,Thunder,86
Hawks,101,Celtics,103
Trail Blazers,109,Magic,115
Kings,108,Cavaliers,120
Jazz,110,Pistons,77
Clippers,113,Lakers,97
Bulls,107,Pelicans,99
Suns,108,Spurs,105
Wizards,109,76ers,93
Jazz,114,Magic,107
Mavericks,98,Timberwolves,87
Raptors,116,Knicks,101
Hawks,111,Bucks,98
Nets,112,Rockets,137
Kings,118,Thunder,122
Grizzlies,104,Bulls,108
Lakers,97,Pistons,102
Knicks,107,Hawks,108
Wizards,120,Trail Blazers,101
Bucks,104,76ers,113
Pacers,98,Pelicans,95
Nuggets,125,Magic,112
Celtics,108,Hornets,98
Warriors,126,Cavaliers,91
Suns,101,Jazz,106
Clippers,120,Thunder,98
Nets,109,Raptors,119
Heat,109,Rockets,103
Bulls,98,Mavericks,99
Spurs,122,Timberwolves,114
Lakers,121,Nuggets,127
76ers,94,Raptors,89
Wizards,104,Grizzlies,101
Hornets,107,Trail Blazers,85
Celtics,106,Knicks,117
Pelicans,118,Magic,98
Rockets,111,Bucks,92
Pistons,118,Hawks,95
Warriors,121,Thunder,100
Kings,100,Pacers,106
Cavaliers,118,Suns,103
Heat,99,Mavericks,95
Knicks,110,Wizards,113
Spurs,118,Nuggets,104
Clippers,101,Timberwolves,104
76ers,93,Trail Blazers,92
Hornets,113,Raptors,78
Magic,112,Bucks,96
Grizzlies,107,Kings,91
Pelicans,114,Nets,143
Rockets,108,Warriors,125
Hawks,102,Bulls,93
Mavericks,107,Jazz,112
Lakers,108,Pacers,95
Celtics,123,Trail Blazers,127
Pistons,113,Wizards,112
Hornets,112,Nets,105
Hawks,110,76ers,93
Knicks,105,Suns,107
Heat,109,Bucks,97
Grizzlies,95,Rockets,119
Cavaliers,115,Spurs,118
Nuggets,123,Clippers,98
Jazz,109,Pacers,100
Bulls,102,Kings,99
Magic,98,Warriors,118
Mavericks,122,Lakers,73
Raptors,103,Suns,115
Timberwolves,111,Nuggets,108
Hornets,99,Wizards,109
Nets,86,Spurs,112
Hawks,105,Clippers,115
Heat,105,Warriors,102
Pistons,104,Kings,109
Bucks,127,Rockets,114
Pelicans,124,Cavaliers,122
Pacers,103,Knicks,109
Jazz,95,Thunder,97
Raptors,106,Spurs,108
76ers,121,Clippers,110
Wizards,123,Celtics,108
Magic,92,Bulls,100
Nuggets,103,Jazz,93
Suns,111,Timberwolves,112
Cavaliers,112,Kings,116
Celtics,120,Rockets,109
Nets,106,Heat,109
Bulls,114,Hawks,119
Bucks,109,76ers,114
Grizzlies,101,Raptors,99
Pelicans,105,Thunder,114
Hornets,103,Warriors,113
Mavericks,103,Knicks,95
Trail Blazers,105,Lakers,98
Thunder,109,Mavericks,98
Timberwolves,103,Pacers,109
Nuggets,127,Suns,120
Jazz,96,Lakers,88
Pacers,115,Kings,111
Cavaliers,124,Nets,116
Celtics,128,Magic,98
Raptors,102,Bucks,86
Knicks,110,Hornets,107
76ers,118,Rockets,123
Bulls,88,Heat,100
Pelicans,119,Spurs,103
Hawks,86,Wizards,112
Trail Blazers,112,Grizzlies,109
Hornets,106,Kings,109
Heat,116,Pistons,103
Bucks,108,Celtics,112
Warriors,144,Clippers,98
Jazz,95,Grizzlies,102
Suns,112,Nuggets,123
Timberwolves,129,Nets,109
Hawks,142,Knicks,139
Cavaliers,107,Thunder,91
Pacers,120,Rockets,101
Pelicans,94,Wizards,107
Raptors,113,Magic,114
Bulls,121,76ers,108
Spurs,101,Mavericks,105
Trail Blazers,111,Warriors,113
76ers,122,Kings,119
Heat,104,Nets,96
Timberwolves,111,Magic,105
Celtics,113,Pistons,109
Mavericks,104,Cavaliers,97
Suns,96,Grizzlies,115
Wizards,117,Knicks,101
Raptors,108,Pelicans,106
Rockets,105,Kings,83
Spurs,108,Thunder,94
Trail Blazers,115,Hornets,98
Lakers,120,Nuggets,116
Magic,88,Pacers,98
Cavaliers,125,Timberwolves,97
Celtics,109,Raptors,104
Nets,90,Knicks,95
Heat,116,Hawks,93
Pistons,118,Pelicans,98
Mavericks,113,76ers,95
Nuggets,99,Grizzlies,119
Jazz,104,Bucks,88
Suns,114,Clippers,124
Thunder,100,Bulls,128
Warriors,126,Hornets,111
Wizards,116,Lakers,108
Rockets,108,Hawks,113
Spurs,102,76ers,86
Clippers,120,Warriors,133
Magic,102,Raptors,94
Nets,97,Pacers,106
Pistons,116,Timberwolves,108
Rockets,121,Bulls,117
Thunder,114,Grizzlies,102
Celtics,113,Lakers,107
Nuggets,121,Bucks,117
Kings,103,Suns,105
Trail Blazers,104,Mavericks,108
Wizards,105,Pelicans,91
Hawks,113,Magic,86
Pacers,105,Pistons,84
Heat,125,76ers,102
Knicks,104,Cavaliers,111
Jazz,105,Hornets,98
Suns,112,Bucks,137
Spurs,121,Nuggets,97
Timberwolves,99,Grizzlies,107
Kings,109,Warriors,106
Nets,95,Raptors,103
Celtics,107,Clippers,102
Thunder,105,Trail Blazers,99
Knicks,107,Lakers,121
Wizards,135,Cavaliers,140
Pacers,93,Thunder,90
Raptors,118,Clippers,109
Hawks,95,Jazz,120
Pistons,113,76ers,96
Pelicans,111,Suns,106
Timberwolves,113,Heat,115
Nuggets,110,Mavericks,87
Grizzlies,89,Spurs,74
Kings,107,Bulls,112
Hornets,111,Nets,107
Rockets,128,Magic,104
Mavericks,113,Trail Blazers,114
76ers,103,Spurs,111
Pacers,117,Cavaliers,132
Nets,110,Wizards,114
Hawks,117,Nuggets,106
Pistons,121,Lakers,102
Bucks,88,Heat,106
Grizzlies,110,Suns,91
Pelicans,94,Jazz,127
Timberwolves,112,Raptors,109
Knicks,115,Clippers,119
Warriors,123,Bulls,92
Kings,108,Celtics,92
Hornets,95,Rockets,107
Magic,111,76ers,112
Thunder,118,Cavaliers,109
Mavericks,112,Jazz,105
Trail Blazers,111,Celtics,120
Nets,99,Heat,108
Knicks,123,Nuggets,131
Pistons,92,Spurs,103
Bucks,114,Lakers,122
Grizzlies,107,Warriors,122
Timberwolves,106,Pelicans,122
Wizards,112,Pacers,107
Kings,108,Hawks,107
Suns,115,Bulls,97
Hornets,102,Clippers,107
Pacers,100,Bucks,116
76ers,117,Heat,109
Cavaliers,125,Nuggets,109
Thunder,114,Warriors,130
Rockets,133,Suns,102
Mavericks,112,Magic,80
Jazz,104,Celtics,112
Timberwolves,117,Bulls,89
Knicks,94,Spurs,90
Raptors,101,Pistons,102
Kings,105,Pelicans,99
Hornets,99,76ers,105
Pacers,106,Spurs,110
Nets,103,Grizzlies,112
Heat,107,Magic,116
Wizards,120,Thunder,98
Bucks,102,Pistons,89
Mavericks,98,Celtics,111
Nuggets,132,Warriors,110
Jazz,72,Clippers,88
Suns,108,Pelicans,110
Trail Blazers,104,Hawks,109
Bulls,105,Raptors,94
Timberwolves,108,Cavaliers,116
Lakers,96,Kings,97
Magic,79,Spurs,107
Cavaliers,113,Pacers,104
Celtics,116,76ers,108
Raptors,90,Hornets,85
Nets,125,Bucks,129
Pistons,98,Mavericks,91
Grizzlies,91,Pelicans,95
Rockets,109,Heat,117
Nuggets,99,Timberwolves,112
Jazz,111,Trail Blazers,88
Suns,137,Lakers,101
Thunder,116,Knicks,105
Clippers,99,Hawks,84
Warriors,109,Kings,86
Pacers,98,Wizards,111
Bulls,104,Celtics,103
Magic,103,Trail Blazers,112
Pistons,114,Hornets,108
Pelicans,99,Rockets,129
Cavaliers,119,Knicks,104
Warriors,123,Clippers,113
Kings,116,Nuggets,100
76ers,120,Wizards,112
Pacers,102,Grizzlies,92
Raptors,107,Celtics,97
Bulls,128,Suns,121
Bucks,95,Jazz,109
Thunder,110,Lakers,93
Timberwolves,97,Mavericks,84
Hawks,90,Heat,108
Nuggets,129,Nets,109
Clippers,97,Spurs,105
Kings,85,Hornets,99
Magic,105,Hawks,86
Knicks,110,76ers,109
Heat,113,Pacers,95
Mavericks,96,Pelicans,83
Cavaliers,99,Bulls,117
Rockets,142,Timberwolves,130
Warriors,112,Nets,95
Lakers,98,Spurs,119
Bucks,100,Suns,96
Nuggets,98,Grizzlies,105
Wizards,92,Jazz,102
Raptors,112,Trail Blazers,106
Pistons,98,Celtics,104
Thunder,118,Pelicans,110
Clippers,124,Hornets,121
Knicks,91,Raptors,92
76ers,108,Warriors,119
Cavaliers,102,Bucks,95
Celtics,98,Hawks,114
Mavericks,96,Heat,89
Rockets,108,Pacers,117
Kings,88,Timberwolves,102
Wizards,112,Warriors,108
Pistons,120,Trail Blazers,113
Bulls,107,Nuggets,125
Grizzlies,130,Suns,112
Thunder,109,Jazz,106
Lakers,104,Hornets,109
Magic,90,Knicks,101
Raptors,96,Wizards,105
Hawks,100,Mavericks,95
Heat,125,76ers,98
Bucks,98,Nuggets,110
Pelicans,109,Pistons,86
Celtics,103,Cavaliers,99
Spurs,100,Pacers,99
Jazz,80,Timberwolves,107
Clippers,103,Rockets,122
Kings,100,Nets,109
Bulls,94,Warriors,87
Suns,120,Hornets,103
Trail Blazers,114,Thunder,109
76ers,105,Knicks,102
Wizards,106,Raptors,114
Magic,110,Heat,99
Hawks,130,Cavaliers,135
Bucks,112,Clippers,101
Mavericks,104,Grizzlies,100
Jazz,112,Nets,97
Suns,118,Thunder,111
Pelicans,98,Spurs,101
Lakers,95,Celtics,115
76ers,106,Pistons,136
Bucks,101,Raptors,94
Heat,120,Cavaliers,92
Bulls,91,Clippers,101
Nuggets,102,Hornets,112
Rockets,123,Grizzlies,108
Spurs,97,Timberwolves,90
Trail Blazers,130,Nets,116
Hawks,96,Pacers,97
Knicks,105,Warriors,112
Suns,109,Celtics,106
Wizards,115,Magic,114
Kings,109,Jazz,110
Mavericks,104,Thunder,89
Lakers,97,Pelicans,105
76ers,98,Bucks,112
Magic,105,Knicks,113
Cavaliers,98,Heat,106
Hawks,111,Warriors,119
Pistons,109,Bulls,95
Grizzlies,109,Nets,122
Hornets,100,Pacers,88
Spurs,112,Rockets,110
Nuggets,108,Kings,96
Jazz,88,Pelicans,83
Clippers,116,Celtics,102
Thunder,121,Trail Blazers,126
Mavericks,122,Lakers,111
Suns,127,Wizards,131
Magic,98,Bulls,91
Hawks,110,Nets,105
Heat,108,Hornets,101
Bucks,104,Knicks,93
Pelicans,87,Raptors,94
Rockets,108,Jazz,115
Timberwolves,107,Clippers,91
Pacers,115,Pistons,98
Spurs,114,Kings,104
Nuggets,113,Wizards,123
Warriors,86,Celtics,99
Pistons,106,Cavaliers,101
Grizzlies,98,Clippers,114
Thunder,102,Spurs,92
Trail Blazers,114,76ers,108
Suns,110,Lakers,122
Hornets,121,Magic,81
Bulls,94,Rockets,115
Bucks,99,Pacers,85
Timberwolves,103,Warriors,102
Hawks,105,Raptors,99
Nuggets,119,Celtics,99
Mavericks,105,Nets,96
Kings,122,Wizards,130
Thunder,112,Jazz,104
Clippers,112,76ers,100
Pistons,112,Knicks,92
Hornets,122,Pelicans,125
Magic,104,Cavaliers,116
Bucks,102,Timberwolves,95
Heat,104,Raptors,89
Spurs,107,Warriors,85
Grizzlies,90,Hawks,107
Mavericks,98,Suns,100
Trail Blazers,124,Wizards,125
Kings,92,Nuggets,105
Celtics,100,Bulls,80
Nets,120,Knicks,112
Pacers,102,Heat,98
Suns,101,Trail Blazers,110
Rockets,117,Cavaliers,112
Lakers,116,76ers,118
Hornets,109,Bulls,115
Raptors,100,Mavericks,78
Grizzlies,113,Bucks,93
Spurs,107,Hawks,99
Timberwolves,119,Wizards,104
Jazz,114,Clippers,108
Kings,120,Magic,115
Nuggets,129,Lakers,101
Cavaliers,128,Pistons,96
Nets,104,Thunder,122
Knicks,87,Pacers,81
Pelicans,100,Trail Blazers,77
Warriors,106,76ers,104
Wizards,107,Mavericks,112
Pacers,98,Hornets,77
Celtics,117,Timberwolves,104
Heat,120,Pelicans,112
Pistons,83,Jazz,97
Bulls,91,Grizzlies,98
Rockets,139,Lakers,100
Spurs,106,Trail Blazers,110
Suns,101,Kings,107
Clippers,96,Bucks,97
Cavaliers,91,Jazz,83
Raptors,102,Thunder,123
Knicks,110,Nets,121
Hawks,91,Grizzlies,103
Nuggets,129,Clippers,114
Warriors,122,Magic,92
76ers,116,Mavericks,74
Wizards,112,Bulls,107
Nets,95,Celtics,98
Pistons,75,Raptors,87
Pelicans,128,Rockets,112
Heat,123,Timberwolves,105
Suns,103,Magic,109
Lakers,103,Bucks,107
Thunder,110,Kings,94
Hawks,97,Trail Blazers,113
Hornets,98,Wizards,93
Clippers,108,Cavaliers,78
Bulls,95,Jazz,86
Grizzlies,104,Spurs,96
Nuggets,105,Rockets,109
Warriors,117,Bucks,92
Nets,104,Mavericks,111
76ers,105,Celtics,99
Pistons,112,Suns,95
Pelicans,123,Timberwolves,109
Raptors,116,Pacers,91
Heat,104,Trail Blazers,115
Spurs,118,Kings,102
Lakers,120,Cavaliers,125
Hornets,105,Hawks,90
Magic,112,76ers,109
Pacers,107,Jazz,100
Celtics,110,Wizards,102
Rockets,125,Nuggets,124
Thunder,95,Warriors,111
Clippers,114,Knicks,105
Raptors,122,Bulls,120
Nets,98,Pistons,96
Heat,112,Suns,97
Pelicans,95,Grizzlies,82
Mavericks,87,Warriors,112
Timberwolves,93,Spurs,100
Trail Blazers,90,Bucks,93
Lakers,109,Clippers,133
Magic,102,Hornets,109
Celtics,109,Pacers,100
Bulls,117,Pistons,95
Thunder,122,76ers,97
Wizards,104,Hawks,100
Nuggets,126,Cavaliers,113
Kings,98,Bucks,116
Jazz,108,Knicks,101
Nets,126,Suns,98
Heat,84,Raptors,101
Mavericks,97,Clippers,95
Spurs,97,Grizzlies,90
Trail Blazers,110,Knicks,95
Wizards,129,Nets,108
Hornets,105,Cavaliers,112
Magic,115,Pistons,87
Pacers,117,Nuggets,125
Celtics,130,Suns,120
Bulls,107,76ers,117
Bucks,100,Hawks,97
Rockets,117,Pelicans,107
Lakers,130,Timberwolves,119
Warriors,114,Kings,100
Clippers,108,Jazz,95
Cavaliers,115,Wizards,127
Mavericks,86,Raptors,94
Spurs,106,Knicks,98
Trail Blazers,112,Timberwolves,100
Hornets,120,Suns,106
Hawks,92,Nets,107
Clippers,97,Kings,98
Bucks,94,Bulls,109
Rockets,137,Thunder,125
Pacers,107,76ers,94
Celtics,112,Heat,108
Warriors,106,Grizzlies,94
Nuggets,90,Pelicans,115
Lakers,81,Trail Blazers,97
Raptors,131,Magic,112
Knicks,109,Pistons,95
Spurs,103,Cavaliers,74
Mavericks,91,Thunder,92
Kings,91,Grizzlies,90
Jazz,108,Pelicans,100
Hornets,108,Bucks,118
Pacers,114,Timberwolves,115
Nets,101,76ers,106
Hawks,95,Suns,91
Pistons,96,Heat,97
Rockets,106,Warriors,113
Trail Blazers,122,Nuggets,113
Lakers,108,Wizards,119
76ers,92,Hawks,99
Magic,106,Thunder,114
Celtics,100,Bucks,103
Raptors,106,Hornets,110
Knicks,88,Heat,105
Grizzlies,110,Pacers,97
Pelicans,121,Mavericks,118
Spurs,98,Warriors,110
Clippers,133,Wizards,124
Kings,82,Jazz,112
Pistons,90,Nets,89
Bulls,99,Cavaliers,93
Timberwolves,119,Lakers,104
Suns,118,Clippers,124
Trail Blazers,117,Rockets,107
Raptors,111,Pacers,100
Hornets,122,Nuggets,114
Cavaliers,122,76ers,105
Celtics,117,Magic,116
Bucks,108,Pistons,105
Grizzlies,99,Mavericks,90
Pelicans,117,Kings,89
Heat,94,Knicks,98
Thunder,95,Spurs,100
Jazz,95,Wizards,88
Warriors,107,Rockets,98
Clippers,115,Lakers,104
Bulls,106,Hawks,104
Nets,121,Magic,111
Timberwolves,117,Kings,123
Trail Blazers,130,Suns,117
Knicks,94,Celtics,110
Thunder,101,Hornets,113
Lakers,108,Grizzlies,103
Bucks,105,Mavericks,109
Spurs,109,Jazz,103
Pelicans,110,Bulls,117
Raptors,113,76ers,105
Nets,91,Hawks,82
Heat,113,Nuggets,116
Cavaliers,135,Pacers,130
Warriors,139,Wizards,115
Suns,116,Rockets,123
Timberwolves,110,Trail Blazers,109
76ers,118,Nets,141
Wizards,118,Hornets,111
Cavaliers,122,Magic,102
Pacers,108,Raptors,90
Pelicans,131,Nuggets,134
Thunder,110,Bucks,79
Knicks,100,Bulls,91
Spurs,95,Grizzlies,89
Jazz,106,Trail Blazers,87
Warriors,121,Timberwolves,107
Kings,98,Mavericks,87
Hornets,99,Heat,112
Pistons,102,Raptors,105
Grizzlies,100,Thunder,103
Rockets,110,Nuggets,104
Celtics,91,Cavaliers,114
Spurs,95,Lakers,102
Suns,111,Warriors,120
Clippers,112,Mavericks,101
76ers,90,Bulls,102
Magic,115,Nets,107
Pacers,104,Bucks,89
Knicks,103,Wizards,106
Hawks,123,Celtics,116
Trail Blazers,105,Timberwolves,98
Cavaliers,100,Hawks,114
Raptors,96,Heat,94
Grizzlies,101,Knicks,88
Rockets,109,Pistons,114
Mavericks,89,Spurs,102
Nuggets,122,Pelicans,106
Jazz,120,Timberwolves,113
Suns,120,Thunder,99
Lakers,98,Kings,94
Nets,107,Bulls,106
Hornets,114,Celtics,121
Magic,112,Pacers,127
76ers,82,Bucks,90
Wizards,103,Heat,106
Spurs,87,Clippers,98
Trail Blazers,101,Jazz,86
Warriors,123,Pelicans,101
Knicks,97,Raptors,110
Hawks,126,Cavaliers,125
Nuggets,105,Thunder,106
Suns,124,Mavericks,111
Kings,128,Rockets,135
Grizzlies,90,Pistons,103
Lakers,110,Timberwolves,109
76ers,111,Pacers,120
Celtics,114,Nets,105
Heat,124,Cavaliers,121
Bulls,122,Magic,75
Bucks,89,Hornets,79
Pistons,101,Wizards,105
Trail Blazers,99,Spurs,98
Clippers,125,Rockets,96
Warriors,99,Jazz,105
Hawks,103,Hornets,76
Timberwolves,98,Thunder,100
Mavericks,91,Nuggets,109
Lakers,108,Pelicans,96
Kings,129,Suns,104
Magic,113,Pistons,109
Cavaliers,83,Raptors,98
Celtics,112,Bucks,94
Knicks,114,76ers,113
Heat,110,Wizards,102
Bulls,112,Nets,73
Grizzlies,93,Mavericks,100
Rockets,123,Timberwolves,118
Thunder,105,Nuggets,111
Pacers,104,Hawks,86
Jazz,101,Spurs,97
Clippers,115,Kings,95
Warriors,109,Lakers,94
Trail Blazers,100,Pelicans,103
