Hawks,94,Pistons,106
Bulls,97,Cavaliers,95
Warriors,111,Pelicans,95
Magic,87,Wizards,88
Celtics,112,76ers,95
Nets,100,Bulls,115
Pistons,92,Jazz,87
Heat,104,Hornets,94
Raptors,106,Pacers,99
Rockets,85,Nuggets,105
Grizzlies,76,Cavaliers,106
Bucks,97,Knicks,122
Thunder,112,Spurs,106
Suns,95,Mavericks,111
Trail Blazers,112,Pelicans,94
Kings,104,Clippers,111
Lakers,111,Timberwolves,112
Pacers,103,Grizzlies,112
Knicks,101,Hawks,112
Clippers,104,Mavericks,88
Cavaliers,102,Heat,92
Magic,136,Thunder,139
76ers,71,Jazz,99
Celtics,103,Raptors,113
Pistons,98,Bulls,94
Hawks,97,Hornets,94
Bucks,113,Wizards,118
Spurs,102,Nets,75
Nuggets,78,Timberwolves,95
Rockets,92,Warriors,112
Kings,132,Lakers,114
Suns,110,Trail Blazers,92
Pacers,76,Jazz,97
Wizards,110,Knicks,117
Pelicans,120,Warriors,134
Grizzlies,101,Nets,91
Trail Blazers,90,Suns,101
Clippers,114,Kings,109
Hornets,92,Hawks,94
Celtics,87,Spurs,95
Heat,109,Rockets,89
Raptors,106,Bucks,87
Bulls,92,Magic,87
Thunder,117,Nuggets,93
Lakers,93,Mavericks,103
76ers,100,Cavaliers,107
Nets,96,Bucks,103
Knicks,84,Spurs,94
Rockets,110,Thunder,105
Timberwolves,101,Trail Blazers,106
Warriors,119,Grizzlies,69
Clippers,102,Suns,96
Hornets,130,Bulls,105
Pistons,82,Pacers,94
Heat,92,Hawks,98
Pelicans,94,Magic,103
Mavericks,91,Raptors,102
Kings,89,Grizzlies,103
Lakers,109,Nuggets,120
Pacers,100,Celtics,98
Wizards,102,Spurs,99
Hawks,101,Nets,87
Cavaliers,96,Knicks,86
Rockets,119,Magic,114
Bucks,91,76ers,87
Thunder,98,Raptors,103
Suns,118,Kings,97
Jazz,92,Trail Blazers,108
Warriors,112,Clippers,108
Bulls,104,Thunder,98
Timberwolves,84,Heat,96
Mavericks,94,Hornets,108
Nuggets,84,Jazz,96
Trail Blazers,115,Grizzlies,96
Magic,92,Raptors,87
Celtics,118,Wizards,98
Nets,98,Lakers,104
Cavaliers,108,76ers,102
Knicks,92,Bucks,99
Pacers,90,Heat,87
Pelicans,115,Hawks,121
Suns,92,Pistons,100
Warriors,119,Nuggets,104
Kings,110,Rockets,116
Bulls,93,Timberwolves,102
76ers,97,Magic,105
Hawks,114,Wizards,99
Mavericks,107,Pelicans,98
Bucks,94,Nets,86
Spurs,114,Hornets,94
Jazz,89,Grizzlies,79
Kings,94,Warriors,103
Clippers,105,Rockets,109
Cavaliers,101,Pacers,97
Knicks,99,Lakers,95
Heat,96,Raptors,76
Thunder,124,Suns,103
Trail Blazers,103,Pistons,120
Pacers,97,Magic,84
76ers,88,Bulls,111
Hawks,107,Timberwolves,117
Nuggets,108,Trail Blazers,104
Kings,88,Spurs,106
Warriors,109,Pistons,95
Clippers,94,Grizzlies,92
Cavaliers,118,Jazz,114
Wizards,101,Thunder,125
Heat,101,Lakers,88
Raptors,109,Knicks,111
Bucks,83,Celtics,99
Timberwolves,95,Hornets,104
Pelicans,120,Mavericks,105
Hornets,95,Knicks,93
Magic,101,Lakers,99
76ers,103,Raptors,119
Celtics,91,Pacers,102
Hawks,106,Pelicans,98
Mavericks,118,Clippers,108
Rockets,98,Nets,106
Grizzlies,84,Warriors,100
Nuggets,103,Bucks,102
Kings,101,Pistons,92
Trail Blazers,101,Spurs,113
Heat,92,Jazz,91
Timberwolves,116,Warriors,129
Suns,118,Clippers,104
Pacers,107,Timberwolves,103
Magic,102,Jazz,93
Celtics,106,Hawks,93
Knicks,84,Cavaliers,90
Raptors,100,Pelicans,81
Bulls,102,Hornets,97
Grizzlies,101,Trail Blazers,100
Thunder,102,76ers,85
Mavericks,90,Lakers,82
Nuggets,107,Rockets,98
Kings,111,Nets,109
Clippers,101,Pistons,96
Wizards,108,Magic,99
Rockets,98,Mavericks,110
Bucks,108,Cavaliers,105
Spurs,92,76ers,83
Suns,105,Nuggets,81
Warriors,107,Nets,99
Knicks,95,Pelicans,87
Timberwolves,106,Grizzlies,114
Hornets,106,Trail Blazers,94
Hawks,96,Jazz,97
Thunder,85,Celtics,100
Kings,107,Raptors,101
Lakers,97,Pistons,85
76ers,86,Mavericks,92
Bulls,96,Pacers,95
Rockets,95,Celtics,111
Grizzlies,122,Thunder,114
Spurs,93,Trail Blazers,80
Suns,120,Lakers,101
Wizards,115,Bucks,86
Nets,90,Hawks,88
Pistons,104,Cavaliers,99
Heat,91,Timberwolves,103
Knicks,102,Hornets,94
Pelicans,98,Nuggets,115
Warriors,115,Raptors,110
Hornets,116,Nets,111
Magic,104,Timberwolves,101
76ers,85,Pacers,112
Celtics,102,Mavericks,106
Hawks,103,Kings,97
Rockets,108,Trail Blazers,103
Thunder,110,Pelicans,103
Spurs,109,Nuggets,98
Jazz,93,Raptors,89
Suns,97,Bulls,103
Heat,116,Kings,109
Cavaliers,115,Bucks,100
Clippers,117,Warriors,124
Hornets,113,76ers,88
Celtics,120,Nets,95
Grizzlies,96,Rockets,84
Timberwolves,86,Pistons,96
Pelicans,104,Spurs,90
Thunder,90,Knicks,93
Mavericks,102,Jazz,93
Nuggets,107,Suns,114
Trail Blazers,102,Clippers,91
Warriors,106,Bulls,94
Lakers,91,Raptors,102
Magic,91,Kings,97
Pacers,123,Bucks,86
Cavaliers,109,Hawks,97
Pistons,95,Wizards,97
Heat,96,76ers,91
Rockets,102,Knicks,107
Spurs,92,Grizzlies,82
Clippers,80,Raptors,91
Nets,111,Celtics,101
Pelicans,122,Suns,116
Thunder,117,Mavericks,114
Nuggets,105,Warriors,118
Lakers,93,Trail Blazers,107
Hornets,127,Kings,122
Cavaliers,117,Magic,103
Heat,95,Knicks,78
Bucks,109,Pistons,88
Timberwolves,100,76ers,95
Spurs,98,Suns,84
Jazz,89,Thunder,111
Wizards,106,Pacers,123
Hawks,121,Celtics,97
Grizzlies,110,Mavericks,96
Nuggets,94,Clippers,111
Trail Blazers,88,Bulls,93
Warriors,111,Lakers,77
Hornets,101,Wizards,87
Magic,100,Knicks,91
Celtics,84,76ers,80
Pistons,104,Heat,81
Raptors,103,Cavaliers,99
Rockets,93,Grizzlies,102
Bucks,118,Kings,129
Timberwolves,99,Hawks,95
Thunder,110,Nets,99
Spurs,88,Mavericks,83
Suns,114,Pelicans,120
Clippers,91,Jazz,102
Hornets,90,Cavaliers,95
Magic,114,Bucks,90
Celtics,111,Wizards,78
Knicks,78,Heat,97
Pacers,104,Bulls,92
Rockets,116,76ers,114
Grizzlies,101,Hawks,116
Thunder,103,Pistons,87
Nuggets,80,Spurs,91
Suns,116,Warriors,135
Kings,91,Timberwolves,101
Clippers,111,Pelicans,90
Wizards,82,Raptors,84
Cavaliers,90,Nets,88
Mavericks,92,Nuggets,81
Spurs,108,Hawks,88
Jazz,101,Pelicans,87
Trail Blazers,108,Lakers,96
Warriors,120,Kings,101
Hornets,87,Bucks,82
Clippers,107,Timberwolves,99
Nets,87,Pistons,83
Magic,110,Celtics,91
Raptors,102,Suns,107
Grizzlies,92,76ers,84
Knicks,111,Rockets,116
Lakers,103,Pacers,107
Pistons,116,Rockets,105
Heat,95,Celtics,105
Hawks,106,Thunder,100
Bulls,92,Spurs,89
Bucks,92,Nuggets,74
Jazz,103,Warriors,106
Kings,112,Mavericks,98
Clippers,102,Trail Blazers,87
Cavaliers,85,Wizards,97
76ers,103,Lakers,91
Nets,94,Suns,91
Timberwolves,93,Magic,96
Pelicans,104,Grizzlies,113
Trail Blazers,112,Mavericks,115
Hornets,99,Warriors,116
Wizards,104,Lakers,108
Pistons,127,Suns,122
Knicks,99,76ers,87
Hawks,86,Raptors,96
Bulls,99,Nuggets,90
Rockets,108,Pelicans,101
Spurs,95,Bucks,70
Clippers,91,Pacers,103
Heat,97,Thunder,95
Raptors,105,Nuggets,106
Jazz,94,Magic,103
Grizzlies,83,Spurs,103
Trail Blazers,123,Pacers,111
Kings,97,Celtics,114
Knicks,108,Nets,91
Wizards,109,Suns,106
Pistons,102,Bucks,95
Hawks,100,Lakers,87
Mavericks,96,Rockets,100
Pelicans,114,Cavaliers,108
76ers,105,Nuggets,108
Raptors,109,Warriors,112
Heat,99,Cavaliers,84
Bulls,96,Hornets,102
Rockets,120,Kings,113
Timberwolves,103,Trail Blazers,109
Bucks,106,Knicks,91
Spurs,108,Celtics,105
Jazz,122,Pacers,119
Clippers,103,Magic,101
Grizzlies,95,Suns,93
Nets,98,Warriors,114
Pistons,111,Lakers,91
Wizards,104,Mavericks,116
Thunder,98,Kings,95
Hornets,104,Pistons,84
76ers,68,Spurs,119
Heat,103,Wizards,114
Knicks,97,Mavericks,104
Raptors,102,Lakers,93
Bulls,101,Suns,103
Bucks,90,Trail Blazers,88
Timberwolves,106,Clippers,110
Pelicans,93,Celtics,111
Cavaliers,105,Trail Blazers,100
Pacers,123,Warriors,131
Nets,110,Rockets,105
Grizzlies,88,Thunder,125
Nuggets,74,Magic,85
Kings,114,Jazz,106
Celtics,105,Bulls,100
Hornets,99,Heat,81
Wizards,103,Rockets,109
Pistons,92,Grizzlies,93
Raptors,97,Spurs,94
Bucks,95,Clippers,109
Timberwolves,123,Lakers,122
Suns,107,Magic,104
Jazz,106,Knicks,85
Mavericks,95,Hawks,98
Nets,100,76ers,91
Bulls,83,Clippers,80
Thunder,107,Hawks,94
Kings,99,Knicks,97
Pacers,96,Heat,83
Magic,76,Cavaliers,111
76ers,95,Pistons,107
Celtics,119,Warriors,124
Raptors,90,Bucks,83
Grizzlies,99,Hornets,123
Pelicans,107,Wizards,105
Nuggets,111,Timberwolves,108
Jazz,90,Thunder,94
Spurs,109,Lakers,87
Suns,96,Trail Blazers,106
Nets,100,Clippers,105
Hornets,93,Celtics,98
Pistons,118,Pacers,96
Hawks,78,Spurs,103
Bulls,98,Pelicans,94
Rockets,126,Lakers,97
Mavericks,111,Wizards,114
Bucks,108,Warriors,95
Trail Blazers,110,Knicks,112
Suns,108,Timberwolves,101
Heat,100,Grizzlies,97
Raptors,96,76ers,76
Thunder,104,Jazz,98
Pacers,106,Raptors,90
Nets,82,Magic,105
Pistons,103,Clippers,105
Hawks,88,Heat,100
Bulls,115,76ers,96
Grizzlies,112,Wizards,95
Mavericks,104,Suns,94
Spurs,118,Jazz,81
Nuggets,114,Rockets,108
Trail Blazers,105,Pelicans,101
Celtics,77,Cavaliers,89
Timberwolves,100,Nuggets,112
Kings,107,Rockets,97
Lakers,113,Bucks,95
Pacers,107,Mavericks,81
Magic,113,Hornets,98
Nets,98,Heat,104
Pistons,119,Celtics,116
Knicks,107,Timberwolves,102
Hawks,127,76ers,106
Bulls,98,Grizzlies,85
Thunder,106,Trail Blazers,90
Spurs,114,Wizards,95
Jazz,94,Pelicans,104
Warriors,128,Suns,103
Clippers,103,Bucks,90
Hornets,109,Raptors,99
Cavaliers,104,Thunder,100
Lakers,87,Rockets,107
Pacers,104,Nets,97
Magic,102,Trail Blazers,94
76ers,97,Knicks,107
Celtics,101,Hawks,109
Heat,94,Raptors,108
Bulls,144,Pistons,147
Timberwolves,99,Kings,95
Spurs,115,Clippers,107
Mavericks,97,Grizzlies,88
Jazz,97,Nuggets,88
Suns,104,Pelicans,88
Warriors,121,Bucks,112
Thunder,118,Lakers,78
Wizards,109,Hornets,101
Knicks,107,Bulls,91
Rockets,107,Clippers,97
Grizzlies,96,Pacers,84
Nets,85,Timberwolves,100
Heat,116,Trail Blazers,109
Cavaliers,108,76ers,86
Suns,95,Bucks,101
Magic,100,Hawks,103
Raptors,94,Kings,104
Nuggets,125,Pelicans,130
Wizards,113,Kings,99
Celtics,113,Timberwolves,99
Knicks,99,Magic,107
Hawks,106,Trail Blazers,97
Bulls,102,Nets,105
Rockets,102,Hornets,95
Spurs,106,Pacers,92
Jazz,110,Suns,89
Clippers,99,Thunder,100
76ers,90,Grizzlies,104
Heat,92,Pistons,93
Raptors,103,Mavericks,99
Nuggets,107,Lakers,111
Hornets,89,Celtics,102
Cavaliers,91,Knicks,84
Pacers,106,Kings,108
Magic,104,Rockets,101
Wizards,100,Grizzlies,91
Nets,118,Mavericks,119
Hawks,107,Pistons,100
Bucks,113,76ers,100
Timberwolves,83,Spurs,108
Pelicans,115,Trail Blazers,89
Suns,96,Nuggets,104
Warriors,103,Jazz,85
Lakers,85,Thunder,120
Heat,94,Pelicans,88
Thunder,96,Bulls,105
Warriors,89,Cavaliers,83
Rockets,88,Spurs,84
Lakers,84,Clippers,94
Nets,96,Wizards,111
Bucks,90,Raptors,111
Hornets,98,Grizzlies,92
Magic,101,Heat,108
Pelicans,110,Rockets,108
Hawks,117,Knicks,98
Pistons,93,Celtics,99
Timberwolves,88,Pacers,102
Mavericks,118,Bulls,111
Spurs,101,Nuggets,86
Suns,104,76ers,111
Jazz,104,Clippers,109
Trail Blazers,105,Cavaliers,76
Grizzlies,112,Lakers,96
Celtics,100,Knicks,91
Thunder,122,Nuggets,112
Kings,94,Trail Blazers,98
Hornets,108,Lakers,98
Pacers,93,Hawks,87
Magic,104,Pelicans,89
Wizards,91,Clippers,108
Heat,105,Nets,111
Bulls,104,Raptors,97
Mavericks,103,Bucks,93
Spurs,101,Timberwolves,95
Suns,97,Cavaliers,101
Jazz,95,76ers,91
Warriors,122,Kings,103
Knicks,108,Pistons,96
Rockets,115,Hawks,121
Grizzlies,99,Heat,90
Thunder,131,Bucks,123
Nuggets,87,Cavaliers,93
Hornets,117,Clippers,122
Magic,100,Nets,93
Celtics,104,Lakers,112
Raptors,94,Wizards,91
Bulls,102,Pacers,100
Timberwolves,94,Jazz,80
Mavericks,114,Warriors,91
Spurs,112,Suns,79
Trail Blazers,110,Nuggets,103
Kings,105,76ers,110
Pacers,116,Bucks,120
Pistons,115,Timberwolves,90
Rockets,110,Warriors,114
Pelicans,89,Clippers,95
Thunder,110,Suns,106
Jazz,109,Trail Blazers,96
Wizards,103,Magic,91
Heat,106,Mavericks,82
Raptors,104,Hornets,94
Bulls,108,Knicks,81
Lakers,93,76ers,84
Celtics,97,Nets,100
Kings,142,Suns,119
Hornets,90,Thunder,109
Pacers,94,Pistons,82
Cavaliers,104,Magic,79
Timberwolves,85,Bucks,95
Mavericks,98,Pelicans,105
Spurs,121,Rockets,103
Jazz,92,Grizzlies,87
Warriors,111,Nuggets,108
Clippers,130,76ers,99
Knicks,111,Hawks,97
Raptors,113,Bulls,115
Wizards,75,Heat,97
Nuggets,106,Trail Blazers,112
Lakers,97,Suns,77
Cavaliers,122,Raptors,100
76ers,109,Timberwolves,99
Nets,94,Celtics,103
Pistons,115,Magic,89
Heat,103,Pacers,100
Bucks,98,Spurs,123
Thunder,104,Kings,116
Jazz,91,Rockets,93
Trail Blazers,78,Grizzlies,91
Warriors,111,Hornets,101
Hawks,101,Knicks,107
Bulls,117,Bucks,106
Mavericks,117,Kings,116
Lakers,88,Warriors,109
Heat,90,Knicks,98
Magic,86,Pacers,95
Wizards,115,Cavaliers,121
Celtics,94,Pistons,99
Nets,74,Raptors,91
Timberwolves,74,Nuggets,78
Pelicans,91,Mavericks,100
Spurs,123,Jazz,98
Suns,111,Hornets,102
Thunder,112,Grizzlies,94
Trail Blazers,98,Clippers,109
76ers,98,Hawks,126
Bulls,101,Celtics,92
Rockets,103,Jazz,94
Kings,118,Lakers,115
Wizards,88,Raptors,97
Nets,77,Magic,83
Grizzlies,91,Nuggets,84
Timberwolves,99,Cavaliers,125
Pelicans,86,Pacers,91
Bucks,96,Mavericks,95
Spurs,100,Knicks,99
Suns,95,Heat,103
Trail Blazers,108,Warriors,128
Lakers,113,Thunder,117
Clippers,97,Hornets,83
Hawks,120,Bulls,105
Magic,99,Wizards,105
Pistons,103,Nets,89
76ers,95,Raptors,108
Jazz,98,Heat,83
Kings,116,Warriors,128
Clippers,114,Pelicans,111
Timberwolves,87,Mavericks,93
76ers,85,Cavaliers,95
Grizzlies,101,Celtics,98
Rockets,107,Pacers,103
Knicks,100,Bucks,88
Nuggets,95,Hornets,92
Trail Blazers,115,Thunder,110
Lakers,74,Jazz,86
Nets,79,Spurs,106
Bulls,100,Wizards,114
Warriors,111,Heat,103
Pacers,116,Suns,97
Pistons,99,Spurs,109
Knicks,120,Celtics,114
Grizzlies,91,Rockets,107
Bucks,106,Bulls,101
Timberwolves,96,Thunder,101
Mavericks,107,Cavaliers,110
Lakers,95,Pelicans,91
Hornets,107,Hawks,84
Wizards,106,Bucks,101
Nets,110,Knicks,104
Celtics,103,Pacers,94
Rockets,107,Timberwolves,104
Thunder,108,Mavericks,89
Nuggets,112,Warriors,110
Trail Blazers,99,Jazz,85
Kings,97,Pelicans,109
Clippers,104,Heat,90
Magic,103,Raptors,106
76ers,111,Bulls,115
Grizzlies,103,Pistons,101
Spurs,99,Cavaliers,95
Jazz,101,Kings,103
Warriors,116,Lakers,98
Pacers,104,Wizards,118
Thunder,113,Timberwolves,93
Celtics,117,Suns,103
Nets,104,Trail Blazers,116
Bulls,77,Mavericks,83
Pelicans,109,Hornets,107
Bucks,108,Hawks,101
Nuggets,95,Heat,98
Rockets,77,Cavaliers,91
Hornets,92,Bucks,105
Hawks,114,Nets,86
Wizards,117,Celtics,119
Pistons,113,Warriors,95
76ers,114,Trail Blazers,89
Grizzlies,103,Knicks,95
Jazz,109,Lakers,82
Clippers,103,Kings,110
Timberwolves,117,Suns,87
Thunder,99,Heat,74
Spurs,112,Mavericks,83
Nuggets,129,Pacers,126
Lakers,95,Rockets,112
Knicks,119,76ers,113
Hornets,124,Jazz,119
Wizards,98,Trail Blazers,108
Grizzlies,101,Pelicans,99
Pistons,101,Bulls,111
Hawks,98,Magic,81
Raptors,112,Nets,100
Cavaliers,98,Warriors,132
Mavericks,118,Celtics,113
Clippers,140,Rockets,132
Heat,79,Bucks,91
Pelicans,114,Timberwolves,99
Nuggets,104,Thunder,110
Suns,94,Pacers,97
Magic,87,76ers,96
Wizards,106,Heat,87
Nets,78,Cavaliers,91
Knicks,118,Jazz,111
Raptors,115,Celtics,109
Bulls,94,Warriors,125
Rockets,114,Pistons,123
Thunder,109,Hornets,95
Mavericks,106,Timberwolves,94
Lakers,93,Kings,112
Trail Blazers,98,Hawks,104
Cavaliers,115,Clippers,102
Pelicans,115,Pistons,99
Nuggets,101,Grizzlies,102
Kings,91,Hawks,88
Suns,89,Spurs,117
Magic,116,Hornets,120
Celtics,110,Bulls,101
Nets,86,Jazz,108
Knicks,88,Clippers,116
Raptors,101,Heat,81
Rockets,102,Bucks,98
Mavericks,106,Thunder,109
Warriors,122,Pacers,110
Lakers,95,Spurs,108
Hornets,97,Knicks,84
Pelicans,116,Bucks,99
Timberwolves,106,Grizzlies,101
Cavaliers,83,Bulls,96
Suns,98,Hawks,95
Nuggets,104,Pistons,101
Trail Blazers,121,Lakers,103
Kings,108,Pacers,97
Rockets,115,Mavericks,104
Raptors,112,Clippers,94
76ers,92,Celtics,112
Nets,116,Thunder,106
Cavaliers,114,Timberwolves,107
Wizards,91,Celtics,116
Bulls,84,Heat,89
Grizzlies,108,Magic,102
Pelicans,111,Rockets,112
Nuggets,105,Hawks,119
Jazz,92,Pistons,95
Kings,128,Hornets,129
Warriors,120,Spurs,90
Pacers,89,Clippers,91
76ers,113,Suns,103
Nets,98,Heat,102
Knicks,122,Thunder,128
Raptors,106,Wizards,89
Bucks,107,Magic,100
Trail Blazers,112,Kings,97
Lakers,90,Mavericks,92
Cavaliers,115,Suns,93
Celtics,111,Nuggets,103
Pistons,110,76ers,97
Hawks,83,Clippers,85
Timberwolves,123,Thunder,126
Spurs,130,Rockets,99
Jazz,102,Hornets,73
Warriors,127,Mavericks,107
Pacers,111,Hawks,92
Wizards,113,Nuggets,117
Raptors,103,Knicks,93
Grizzlies,103,Bucks,83
Pelicans,114,Kings,105
Lakers,91,Bulls,114
Celtics,113,Magic,94
Pistons,106,Cavaliers,114
Knicks,102,Suns,84
Thunder,116,Rockets,108
Bucks,103,Heat,107
Mavericks,91,Nets,79
Jazz,103,Timberwolves,90
Trail Blazers,109,Hornets,91
Clippers,105,Lakers,93
76ers,105,Warriors,108
Raptors,111,Pistons,107
Pacers,109,Nuggets,105
Pelicans,105,Nets,103
Rockets,122,Wizards,123
Grizzlies,121,Kings,117
Cavaliers,117,Spurs,103
Clippers,120,Bulls,93
Heat,105,Hawks,87
Magic,119,Celtics,114
Mavericks,91,Suns,78
Knicks,95,Warriors,116
Trail Blazers,96,Timberwolves,93
Lakers,82,Hornets,101
Pacers,106,Cavaliers,111
Nets,100,Pistons,105
Hawks,112,Mavericks,97
Pelicans,95,Grizzlies,110
Thunder,114,Wizards,98
Spurs,107,Magic,92
Nuggets,112,Raptors,93
Jazz,105,Bulls,96
Kings,111,Bucks,104
Knicks,89,Celtics,97
Rockets,115,Heat,102
Suns,97,Raptors,104
Trail Blazers,107,Bucks,95
Lakers,119,Timberwolves,115
Hornets,106,Cavaliers,97
76ers,86,Hawks,124
Celtics,102,Pistons,95
Nets,100,Pacers,114
Wizards,121,Warriors,134
Thunder,117,Magic,114
Mavericks,90,Heat,93
Spurs,110,Pelicans,97
Jazz,85,Nuggets,81
Kings,102,Bulls,107
Clippers,102,Timberwolves,108
Pistons,111,Knicks,105
Suns,105,Rockets,111
Pelicans,96,Lakers,99
Trail Blazers,103,Raptors,110
Hawks,102,Pacers,96
Hornets,95,Heat,98
Magic,93,Clippers,107
Wizards,106,76ers,94
Nets,128,Kings,119
Cavaliers,103,Celtics,104
Knicks,85,Grizzlies,91
Nuggets,115,Bulls,110
Jazz,84,Bucks,81
Mavericks,90,Spurs,116
Rockets,79,Trail Blazers,96
Hornets,108,Wizards,104
Pacers,112,Pistons,104
Cavaliers,99,Pelicans,84
76ers,103,Nets,98
Grizzlies,110,Mavericks,114
Timberwolves,112,Bulls,105
Spurs,106,Lakers,102
Suns,89,Jazz,98
Warriors,116,Thunder,108
Knicks,96,Nuggets,101
Magic,96,Hawks,94
Celtics,128,Kings,119
Heat,93,Clippers,100
Hornets,108,Bulls,91
Cavaliers,120,Kings,100
Pacers,89,Lakers,87
76ers,92,Clippers,98
Nets,105,Nuggets,104
Pistons,89,Raptors,103
Hawks,110,Magic,117
Grizzlies,106,Trail Blazers,112
Timberwolves,102,Pelicans,116
Suns,106,Thunder,122
Heat,101,Spurs,119
Knicks,108,Wizards,111
Bucks,112,Celtics,111
Mavericks,119,Jazz,121
Warriors,123,Rockets,110
Pacers,95,Hornets,117
Magic,96,Spurs,98
76ers,110,Kings,114
Celtics,139,Clippers,134
Nets,90,Grizzlies,109
Pistons,92,Nuggets,103
Cavaliers,120,Lakers,111
Bulls,90,Hawks,113
Timberwolves,117,Raptors,112
Pelicans,100,Jazz,96
Suns,104,Warriors,112
Trail Blazers,116,Rockets,103
Bucks,99,Wizards,92
Thunder,121,Pelicans,95
Wizards,103,Jazz,89
Cavaliers,106,Bulls,95
Clippers,105,Spurs,86
Magic,110,Mavericks,104
Wizards,98,Pistons,86
Nets,109,Knicks,98
Hawks,111,Heat,115
Bulls,116,Raptors,106
Grizzlies,109,Timberwolves,104
Pelicans,121,76ers,114
Thunder,98,Pacers,101
Bucks,95,Hornets,98
Suns,100,Rockets,116
Trail Blazers,137,Warriors,105
Kings,116,Nuggets,110
Jazz,111,Celtics,93
Lakers,113,Spurs,119
Hawks,109,Bucks,117
Heat,114,Wizards,94
Timberwolves,95,Knicks,103
Clippers,112,Warriors,115
Pistons,106,Pelicans,111
Thunder,92,Cavaliers,115
Nuggets,101,Celtics,121
Suns,111,Spurs,118
Nets,96,Hornets,104
Magic,102,Pacers,105
Raptors,98,Grizzlies,85
Mavericks,129,76ers,103
Bulls,126,Lakers,115
Trail Blazers,115,Jazz,111
Cavaliers,88,Pistons,96
Heat,101,Pacers,93
Knicks,95,Raptors,122
Hawks,92,Warriors,102
Bucks,108,Lakers,101
Timberwolves,124,Celtics,122
Clippers,124,Suns,84
76ers,115,Magic,124
Wizards,109,Pelicans,89
Nuggets,110,Kings,114
Jazz,117,Rockets,114
Trail Blazers,112,Nets,104
Cavaliers,114,Hornets,103
Pacers,108,Knicks,105
Pistons,111,76ers,91
Heat,112,Warriors,118
Raptors,114,Timberwolves,105
Bulls,109,Wizards,104
Grizzlies,128,Lakers,119
Mavericks,103,Thunder,116
Clippers,81,Nuggets,87
Kings,92,Spurs,108
Magic,114,Warriors,130
Celtics,112,Bucks,107
Pelicans,123,Thunder,119
Suns,106,Nets,116
Trail Blazers,105,Rockets,119
Jazz,78,Spurs,96
Pacers,95,Hornets,96
76ers,94,Wizards,103
Knicks,108,Magic,95
Raptors,99,Cavaliers,97
Hawks,103,Bulls,88
Mavericks,122,Nuggets,116
Kings,107,Clippers,117
Lakers,95,Grizzlies,112
Celtics,101,Heat,89
Pelicans,110,Timberwolves,112
Bulls,95,Trail Blazers,103
Rockets,94,Spurs,104
Bucks,91,Pistons,102
Thunder,118,Warriors,121
Suns,111,Grizzlies,106
Jazz,96,Nets,98
Wizards,113,Cavaliers,99
Hawks,87,Hornets,76
Pistons,114,Raptors,101
Pacers,102,Trail Blazers,111
Magic,130,76ers,116
Mavericks,128,Timberwolves,101
Knicks,81,Heat,98
Cavaliers,100,Pacers,96
Wizards,116,76ers,108
Celtics,100,Jazz,95
Bucks,128,Rockets,121
Nuggets,96,Grizzlies,103
Kings,116,Thunder,131
Clippers,105,Nets,95
Hornets,126,Suns,92
Heat,129,Bulls,111
Knicks,85,Trail Blazers,104
Mavericks,121,Magic,108
Warriors,109,Hawks,105
Lakers,107,Nets,101
Magic,102,Bulls,89
76ers,99,Hornets,119
Celtics,116,Trail Blazers,93
Raptors,104,Jazz,94
Rockets,100,Pelicans,95
Grizzlies,104,Kings,98
Bucks,99,Pacers,104
Timberwolves,98,Wizards,104
Spurs,97,Pistons,81
Nuggets,117,Lakers,107
Clippers,103,Thunder,98
Heat,108,Suns,92
Pelicans,86,Spurs,94
Mavericks,101,Kings,104
Warriors,121,Thunder,106
Hornets,108,Pacers,101
Magic,84,Suns,102
76ers,102,Heat,112
Celtics,105,Knicks,104
Raptors,117,Trail Blazers,115
Cavaliers,108,Wizards,83
Grizzlies,94,Jazz,88
Bucks,116,Timberwolves,101
Nuggets,120,Nets,121
Lakers,77,Hawks,106
Cavaliers,120,Celtics,103
Knicks,102,Pistons,89
Wizards,99,Pacers,100
Pelicans,94,Jazz,106
Timberwolves,132,Nets,118
Bulls,108,Rockets,100
Spurs,104,Kings,94
Clippers,97,Hawks,107
Bucks,96,Thunder,104
Lakers,112,Warriors,95
Grizzlies,100,Suns,109
Nuggets,116,Mavericks,114
Pistons,123,Trail Blazers,103
Heat,103,76ers,98
Raptors,107,Rockets,113
Hornets,108,Timberwolves,103
Cavaliers,103,Grizzlies,106
Pacers,99,Spurs,91
Bulls,100,Bucks,90
Pelicans,115,Kings,112
Mavericks,90,Clippers,109
Warriors,119,Magic,113
Raptors,104,Nets,99
Timberwolves,91,Spurs,116
Nuggets,110,Knicks,94
Jazz,84,Hawks,91
Trail Blazers,116,Wizards,109
Lakers,107,Magic,98
Hornets,122,Pelicans,113
76ers,104,Rockets,118
Celtics,116,Grizzlies,96
Bucks,114,Heat,108
Mavericks,96,Pistons,102
Suns,97,Knicks,128
Thunder,120,Clippers,108
Kings,111,Cavaliers,120
Warriors,115,Jazz,94
Raptors,104,Hawks,96
Spurs,109,Bulls,101
Nuggets,116,Suns,98
Lakers,108,Cavaliers,120
Hornets,118,Pistons,103
76ers,95,Nets,89
Celtics,98,Rockets,102
Bulls,96,Heat,118
Grizzlies,121,Pelicans,114
Thunder,96,Timberwolves,99
Jazz,114,Wizards,93
Kings,100,Magic,107
Warriors,128,Trail Blazers,112
Clippers,101,Knicks,94
Mavericks,105,Pacers,112
Hornets,125,Rockets,109
76ers,111,Pistons,125
Raptors,112,Heat,104
Hawks,95,Grizzlies,83
Bucks,103,Pelicans,92
Spurs,93,Thunder,85
Nuggets,116,Wizards,100
Warriors,123,Suns,116
Trail Blazers,121,Magic,84
Clippers,90,Cavaliers,114
Hawks,104,Pacers,75
Kings,99,Jazz,108
Nets,100,Bucks,109
Lakers,87,Knicks,90
Hornets,96,Mavericks,107
Heat,124,Nuggets,119
Raptors,107,Bulls,109
Wizards,124,Pistons,81
Rockets,130,Grizzlies,81
Thunder,128,Trail Blazers,94
Suns,107,Timberwolves,104
Jazz,94,Cavaliers,85
Warriors,125,Pelicans,107
Pacers,103,Celtics,98
Magic,116,Nuggets,110
Nets,131,76ers,114
Bucks,89,Raptors,107
Spurs,108,Clippers,87
Lakers,98,Kings,106
Celtics,109,Thunder,130
Hornets,107,Magic,99
Cavaliers,99,Mavericks,98
Wizards,117,Bulls,96
Pistons,114,Hawks,118
Grizzlies,108,Timberwolves,114
Rockets,106,Clippers,122
Kings,108,Pelicans,123
Warriors,121,Knicks,85
Pacers,94,Raptors,101
76ers,94,Wizards,99
Heat,106,Hornets,109
Hawks,116,Nuggets,98
Bulls,118,Nets,102
Bucks,96,Grizzlies,86
Spurs,118,Trail Blazers,110
Jazz,103,Suns,69
Magic,103,Cavaliers,109
76ers,97,Thunder,111
Pistons,115,Kings,108
Raptors,105,Celtics,91
Rockets,116,Timberwolves,111
Pelicans,112,Trail Blazers,117
Mavericks,112,Warriors,130
Lakers,90,Suns,95
Hornets,93,Nuggets,101
Pistons,115,Nets,103
Pacers,111,Thunder,115
Wizards,99,Knicks,89
Hawks,109,Rockets,97
Heat,122,Cavaliers,101
Bulls,92,Jazz,85
Grizzlies,113,Clippers,102
Spurs,87,Warriors,79
Mavericks,132,Trail Blazers,120
Raptors,105,Magic,100
76ers,105,Celtics,120
Pelicans,109,Clippers,105
Bucks,85,Jazz,94
Knicks,80,Kings,88
Hornets,91,Spurs,88
Cavaliers,124,Nuggets,91
Pacers,91,76ers,75
Celtics,107,Magic,96
Pistons,92,Bucks,91
Hawks,102,Wizards,117
Bulls,109,Kings,102
Timberwolves,104,Warriors,109
Suns,97,Grizzlies,103
Nets,100,Hornets,105
Pelicans,99,Heat,113
Thunder,111,Rockets,107
Lakers,107,Grizzlies,100
Wizards,101,Hawks,122
Cavaliers,113,Bucks,104
Celtics,91,Raptors,79
Pistons,118,Magic,102
Bulls,107,Knicks,115
Rockets,87,Jazz,89
Timberwolves,113,Kings,104
Spurs,112,Heat,88
Nuggets,104,76ers,103
Suns,119,Lakers,107
Trail Blazers,109,Mavericks,103
Warriors,114,Clippers,98
Pacers,92,Pelicans,84
Nets,104,Cavaliers,95
Knicks,106,Bulls,94
Thunder,113,Jazz,91
Clippers,96,Trail Blazers,94
Wizards,129,Timberwolves,132
Pistons,112,Hornets,105
Heat,108,Magic,97
Hawks,101,Bucks,90
Rockets,112,Raptors,109
Spurs,110,Grizzlies,104
Kings,116,Suns,94
Warriors,128,Mavericks,120
Lakers,105,Nuggets,116
Nets,120,Pacers,110
Magic,111,Bulls,89
Pelicans,91,Raptors,115
Pistons,95,Hawks,112
Knicks,93,Cavaliers,107
Timberwolves,84,Jazz,93
Thunder,111,Spurs,92
Bucks,91,Hornets,115
Suns,99,Celtics,102
Trail Blazers,108,76ers,105
Clippers,105,Nuggets,90
Pacers,104,Rockets,101
Kings,133,Mavericks,111
Warriors,117,76ers,105
Lakers,88,Wizards,101
Heat,110,Nets,99
Raptors,100,Thunder,119
Bulls,100,Hawks,102
Grizzlies,87,Spurs,101
Timberwolves,121,Suns,116
Pelicans,99,Knicks,91
Nuggets,88,Mavericks,97
Jazz,123,Lakers,75
Trail Blazers,105,Kings,93
Clippers,114,Celtics,90
Pacers,96,Bulls,98
Magic,139,Nets,105
76ers,85,Hornets,100
Pistons,88,Thunder,82
Cavaliers,100,Rockets,106
Warriors,102,Wizards,94
Raptors,105,Hawks,97
Grizzlies,105,Nuggets,109
Bucks,105,Suns,94
Timberwolves,79,Clippers,99
Mavericks,91,Knicks,89
Spurs,100,Pelicans,92
Jazz,96,Warriors,103
Kings,120,Wizards,111
Lakers,102,Heat,100
Cavaliers,107,Nets,87
Pacers,94,Magic,114
Rockets,100,Bulls,103
Pelicans,101,Nuggets,95
Thunder,119,Clippers,117
Trail Blazers,116,Celtics,109
Hornets,100,76ers,91
Pistons,89,Mavericks,98
Knicks,105,Nets,91
Hawks,108,Cavaliers,110
Grizzlies,95,Raptors,99
Bucks,113,Magic,110
Jazz,98,Timberwolves,85
Kings,106,Heat,112
Warriors,106,Celtics,109
Suns,99,Wizards,106
76ers,102,Pacers,115
Bulls,90,Pistons,94
Spurs,102,Raptors,95
Nuggets,106,Kings,115
Trail Blazers,110,Heat,93
Nets,87,Pelicans,106
Cavaliers,112,Hornets,103
Rockets,118,Thunder,110
Timberwolves,78,Mavericks,88
Clippers,114,Wizards,109
Magic,119,Grizzlies,107
Suns,86,Jazz,101
Bucks,98,Bulls,102
Knicks,87,Pacers,92
Warriors,136,Trail Blazers,111
Lakers,100,Celtics,107
76ers,107,Pelicans,93
Raptors,96,Hornets,90
Heat,107,Pistons,89
Hawks,103,Suns,90
Grizzlies,108,Bulls,92
Bucks,80,Cavaliers,109
Nuggets,102,Thunder,124
Jazz,86,Spurs,88
Kings,107,Trail Blazers,115
Warriors,117,Timberwolves,124
Clippers,103,Lakers,81
Pacers,123,Cavaliers,109
Magic,104,Pistons,108
Wizards,121,Nets,103
Celtics,104,Pelicans,97
Knicks,97,Hornets,111
Mavericks,88,Rockets,86
Trail Blazers,120,Thunder,115
Lakers,81,Clippers,91
Hawks,95,Raptors,87
Heat,106,Bulls,98
Rockets,115,Suns,124
Kings,97,Timberwolves,105
Warriors,112,Spurs,101
Hornets,113,Nets,99
Magic,112,Heat,109
76ers,102,Knicks,109
Celtics,124,Bucks,109
Pistons,112,Wizards,99
Raptors,111,Pacers,98
Pelicans,110,Lakers,102
Mavericks,103,Grizzlies,93
Nuggets,102,Spurs,98
Jazz,99,Clippers,102
Pelicans,100,Suns,121
Hawks,118,Celtics,107
Grizzlies,99,Warriors,100
Bulls,105,Cavaliers,102
Trail Blazers,105,Timberwolves,106
Kings,114,Thunder,112
Wizards,113,Hornets,98
Rockets,130,Lakers,110
Clippers,98,Mavericks,91
76ers,108,Bucks,109
Nuggets,84,Jazz,100
Pacers,129,Nets,105
Heat,118,Magic,96
Spurs,86,Warriors,92
Knicks,89,Raptors,93
Cavaliers,109,Hawks,94
Magic,107,Bucks,98
Celtics,100,Hornets,114
Nets,111,Wizards,120
Timberwolves,105,Rockets,129
Pelicans,116,Bulls,121
Thunder,112,Lakers,79
Jazz,92,Mavericks,101
Suns,101,Kings,105
Pacers,102,Knicks,90
Pistons,93,Heat,99
Raptors,122,76ers,98
Spurs,102,Thunder,98
Clippers,110,Grizzlies,84
Celtics,98,Heat,88
Nets,96,Raptors,103
Hornets,117,Magic,103
Cavaliers,110,Pistons,112
Wizards,109,Hawks,98
Bulls,115,76ers,105
Mavericks,91,Spurs,96
Rockets,116,Kings,81
Bucks,92,Pacers,97
Timberwolves,144,Pelicans,109
Warriors,125,Grizzlies,104
Lakers,101,Jazz,96
Suns,114,Clippers,105
Trail Blazers,107,Nuggets,99
